<?xml version="1.0" encoding="UTF-8" standalone="no"?>
<svg
   xmlns:dc="http://purl.org/dc/elements/1.1/"
   xmlns:cc="http://creativecommons.org/ns#"
   xmlns:rdf="http://www.w3.org/1999/02/22-rdf-syntax-ns#"
   xmlns:svg="http://www.w3.org/2000/svg"
   xmlns="http://www.w3.org/2000/svg"
   xmlns:sodipodi="http://sodipodi.sourceforge.net/DTD/sodipodi-0.dtd"
   xmlns:inkscape="http://www.inkscape.org/namespaces/inkscape"
   width="58mm"
   height="58mm"
   viewBox="0 0 58 58"
   version="1.1"
   id="svg8"
   inkscape:version="1.0.2 (e86c870879, 2021-01-15)"
   sodipodi:docname="icon.svg"
   inkscape:export-filename="/home/erics/dev/plongeur/buddyteamlog/resources/icon.png"
   inkscape:export-xdpi="448.44138"
   inkscape:export-ydpi="448.44138">
  <defs
     id="defs2" />
  <sodipodi:namedview
     id="base"
     pagecolor="#ffffff"
     bordercolor="#666666"
     borderopacity="1.0"
     inkscape:pageopacity="0.0"
     inkscape:pageshadow="2"
     inkscape:zoom="4.7271158"
     inkscape:cx="85.532529"
     inkscape:cy="142.06016"
     inkscape:document-units="mm"
     inkscape:current-layer="layer1"
     inkscape:document-rotation="0"
     showgrid="false"
     fit-margin-top="0"
     fit-margin-left="0"
     fit-margin-right="0"
     fit-margin-bottom="0"
     inkscape:window-width="3840"
     inkscape:window-height="2048"
     inkscape:window-x="1920"
     inkscape:window-y="34"
     inkscape:window-maximized="1" />
  <metadata
     id="metadata5">
    <rdf:RDF>
      <cc:Work
         rdf:about="">
        <dc:format>image/svg+xml</dc:format>
        <dc:type
           rdf:resource="http://purl.org/dc/dcmitype/StillImage" />
        <dc:title></dc:title>
      </cc:Work>
    </rdf:RDF>
  </metadata>
  <g
     inkscape:label="Calque 1"
     inkscape:groupmode="layer"
     id="layer1"
     transform="translate(-74.385654,-83.528953)">
    <rect
       style="fill:#ffffff;stroke:#ff0000;stroke-width:0.0269887;stroke-linecap:round;stroke-linejoin:round;paint-order:markers fill stroke"
       id="rect936"
       width="57.973011"
       height="57.973011"
       x="74.399139"
       y="83.542442" />
    <g
       id="g934">
      <path
         d="m 88.436225,131.28233 c 2.303639,-3.25261 5.846586,-14.88016 7.701492,-26.57545 0.379236,-2.39183 0.690738,-4.768497 0.910872,-7.047441 0.07973,-0.826206 3.768371,0.05891 3.134791,-0.667103 -1.692636,-1.939925 -4.11128,-5.260622 0,-3.836458 0.70555,0.244475 -0.379244,-2.608086 0.52916,-2.976739 5.76404,4.602692 11.13614,11.613091 14.08889,19.116321 2.61126,6.6354 9.97889,19.53163 11.50937,20.90208 1.53048,1.37045 -40.178214,4.3374 -37.874575,1.08479 z"
         fill="#11f7f5"
         marker-start="none"
         marker-end="none"
         id="path2462"
         style="font-size:16px;font-family:'Times New Roman';fill-rule:evenodd;stroke:none;stroke-width:0.0881944;stroke-linejoin:miter"
         sodipodi:nodetypes="zcccccszz" />
      <path
         d="m 87.907059,134.45733 c 3.319409,-3.43835 13.076421,-17.42687 11.112499,-29.63333 -0.383469,-2.38442 -0.484716,-1.42522 -0.264583,-3.70416 0.07973,-0.82621 4.602345,-0.86149 3.968755,-1.587504 -1.69263,-1.939925 -4.111277,-6.186664 0,-4.7625 0.70555,0.244475 -2.919594,-4.222044 -2.01119,-4.590697 2.75802,4.329642 10.64613,11.929531 18.85139,19.910071 5.10893,4.96923 2.14841,11.81911 6.17855,19.87021 -1.47697,0.15238 -41.15483,7.93626 -37.835421,4.49791 z"
         fill="#00e1fc"
         marker-start="none"
         marker-end="none"
         id="path2470"
         style="font-size:16px;font-family:'Times New Roman';fill-rule:evenodd;stroke:none;stroke-width:0.0881944;stroke-linejoin:miter"
         sodipodi:nodetypes="zcccccccz" />
      <path
         d="m 96.490847,104.59787 c -11.15836,0.79904 -20.748271,2.48497 -21.331765,9.26006 -0.176389,8.73655 12.35851,11.4353 29.930728,11.74115 14.9793,-1.24671 27.09686,-3.92535 26.62343,-12.89861 -0.0353,-4.97275 -5.63104,-8.15163 -19.18229,-8.76406 1.33033,1.87396 2.12725,3.74827 2.14983,5.62222 -5.82472,2.2225 -12.7628,2.49732 -20.339408,1.65347 z"
         fill="#eff0e3"
         marker-start="none"
         marker-end="none"
         id="path2498"
         style="font-size:16px;font-family:'Times New Roman';fill-rule:evenodd;stroke:none;stroke-width:0.0881944;stroke-linejoin:miter" />
      <path
         d="m 94.506472,111.2121 1.984375,-6.11822 c -3.77578,-0.89641 -7.019572,-0.46073 -9.921522,0.82691 3.175353,0.79304 4.282017,2.3629 3.968397,4.46475 z"
         fill="#ed771d"
         marker-start="none"
         marker-end="none"
         id="path2500"
         style="font-size:16px;font-family:'Times New Roman';fill-rule:evenodd;stroke:none;stroke-width:0.0881944;stroke-linejoin:miter" />
      <path
         d="m 91.034081,110.7161 c -6.162322,-3.53837 -13.560072,-2.48038 -13.725172,8.4335 l 8.1026,4.46511 c -2.308931,-6.2678 0.442736,-10.15506 5.622572,-12.89861 z"
         fill="#d13523"
         marker-start="none"
         marker-end="none"
         id="path2502"
         style="font-size:16px;font-family:'Times New Roman';fill-rule:evenodd;stroke:none;stroke-width:0.0881944;stroke-linejoin:miter" />
      <path
         d="m 109.05856,124.93763 -13.229171,0.1651 c -1.064683,-4.965 -0.968728,-9.64072 1.488369,-13.72518 l 9.591322,-0.16545 c 3.568,5.35305 3.48933,9.71127 2.14948,13.72553 z"
         fill="#d13523"
         marker-start="none"
         marker-end="none"
         id="path2504"
         style="font-size:16px;font-family:'Times New Roman';fill-rule:evenodd;stroke:none;stroke-width:0.0881944;stroke-linejoin:miter" />
      <path
         d="m 120.46845,123.2838 c 3.435,-8.00417 -0.23883,-11.1453 -5.45712,-13.22916 l 3.14184,-1.32292 c 5.14068,-2.18828 9.40788,0.28081 13.22917,5.12621 -0.57292,5.44125 -5.00839,7.98513 -10.91389,9.42587 z"
         fill="#ed771d"
         marker-start="none"
         marker-end="none"
         id="path2506"
         style="font-size:16px;font-family:'Times New Roman';fill-rule:evenodd;stroke:none;stroke-width:0.0881944;stroke-linejoin:miter" />
      <path
         d="m 118.48408,108.56662 -1.65383,-1.48837 2.97674,-2.48038 -7.9375,-0.99236 3.14184,5.95312 z"
         fill="#fca635"
         marker-start="none"
         marker-end="none"
         id="path2508"
         style="font-size:16px;font-family:'Times New Roman';fill-rule:evenodd;stroke:none;stroke-width:0.0881944;stroke-linejoin:miter" />
      <path
         d="m 122.06618,122.52639 c -11.77184,3.15877 -21.83377,3.75214 -30.267983,1.905 l -1.058333,3.59833 c 11.217636,1.37372 22.436316,1.27776 33.654646,-1.27 z"
         fill="#0b8fa8"
         marker-start="none"
         marker-end="none"
         id="path2510"
         style="font-size:16px;font-family:'Times New Roman';fill-rule:evenodd;stroke:none;stroke-width:0.0881944;stroke-linejoin:miter" />
      <path
         d="m 91.034081,110.71645 c -5.334706,-3.06352 -11.5951,-2.68217 -13.287727,4.55612 1.97238,1.94169 4.233333,3.16583 6.762397,3.71652 0.263877,-3.66113 2.796116,-6.29779 6.52533,-8.27264 z"
         fill="#f38530"
         marker-start="none"
         marker-end="none"
         id="path2521"
         style="font-size:16px;font-family:'Times New Roman';fill-rule:evenodd;stroke:none;stroke-width:0.0881944;stroke-linejoin:miter" />
      <path
         d="m 109.90911,120.14902 c -4.90608,1.30951 -9.81252,0.88089 -14.718602,-0.10231 -0.07444,-3.08574 0.523523,-6.00321 2.12725,-8.66916 l 9.591322,-0.16545 c 2.20451,3.30765 3.01696,6.2357 3.00003,8.93692 z"
         fill="#f38530"
         marker-start="none"
         marker-end="none"
         id="path2523"
         style="font-size:16px;font-family:'Times New Roman';fill-rule:evenodd;stroke:none;stroke-width:0.0881944;stroke-linejoin:miter" />
      <path
         d="m 121.8023,118.026 c 0.11748,-4.28625 -2.90936,-6.42126 -6.79097,-7.97136 l 3.14184,-1.32292 c 4.19947,-1.78752 7.81614,-0.46708 11.08287,2.71815 1.67463,1.18498 -6.72607,8.42681 -7.43374,6.57613 z"
         fill="#f38530"
         marker-start="none"
         marker-end="none"
         id="path2525"
         style="font-size:16px;font-family:'Times New Roman';fill-rule:evenodd;stroke:none;stroke-width:0.0881944;stroke-linejoin:miter" />
      <path
         d="m 126.05962,130.18555 c 1.08621,-0.0321 -0.16333,-1.89019 -0.3122,-2.27083 -0.36513,-0.93275 -1.04811,-1.83939 -1.55822,-2.70299 -0.50977,-0.86395 -1.20439,-2.03129 -2.14383,-2.45357 -0.30339,-0.13652 -0.79199,0.0928 -0.63747,0.49001 0.50376,1.29787 1.61501,2.50684 2.34809,3.71334 0.31644,0.5207 0.62582,1.04881 1.00365,1.52823 0.10266,0.12947 1.20332,1.37619 1.2125,1.37231 -0.16228,0.0709 -0.0762,0.32844 0.0875,0.3235 z"
         fill="#000000"
         stroke-width="0.0881944"
         fill-rule="nonzero"
         marker-start="none"
         marker-end="none"
         id="path2573"
         style="font-size:16px;font-family:'Times New Roman';stroke:none;stroke-linejoin:miter" />
      <path
         d="m 115.08083,109.72726 c -0.16757,-3.90102 -3.48157,-7.32649 -5.52768,-10.441163 -1.26788,-1.930047 -2.75413,-3.770841 -4.2746,-5.50545 -1.31939,-1.506008 -2.9203,-3.26143 -4.81683,-4.018138 -0.4558,-0.182034 -0.783173,0.331964 -0.716851,0.717197 0.153459,0.891469 -0.04657,1.770591 0.05115,2.667 0.215551,-0.164042 0.431101,-0.328436 0.646651,-0.492478 -0.768007,-0.150636 -3.03672,-0.665692 -2.719573,0.85478 0.27058,1.296459 1.799166,2.422878 1.922991,3.694642 0.161573,-0.161219 0.323145,-0.322792 0.484362,-0.484364 -0.959906,-0.01376 -1.997425,-0.278342 -2.840917,0.300567 -0.832203,0.571147 -1.169105,1.803752 -1.265414,2.737555 -0.191558,1.853842 -0.07832,3.697112 -0.335139,5.552372 -0.280105,2.02177 -0.887589,3.94476 -1.624541,5.84023 -0.254,0.65335 0.855839,1.12042 1.133475,0.47766 1.148997,-2.66241 1.618544,-5.47087 1.815394,-8.34672 0.103717,-1.51659 -0.179917,-3.10797 0.453672,-4.543422 0.493889,-1.119717 1.770592,-0.915811 2.79224,-1.0668 0.26176,-0.03881 0.40111,-0.364772 0.33832,-0.595842 -0.16193,-0.593372 -0.741549,-1.110192 -1.122902,-1.564922 -0.3302,-0.393347 -0.676627,-0.784578 -0.906991,-1.246011 -0.642056,-1.285522 0.93345,-0.845608 1.603383,-0.62477 0.3436,0.113242 0.61277,-0.181327 0.64664,-0.492477 0.0977,-0.896409 -0.10231,-1.775531 0.0512,-2.667 -0.32455,0.08537 -0.64946,0.171097 -0.974376,0.257175 1.437576,1.392061 3.027546,2.54388 4.384326,4.043539 1.47885,1.633713 2.77778,3.425824 4.05342,5.219346 2.17099,3.052934 5.45712,5.971474 6.13939,9.809694 0.0617,0.34678 0.62406,0.26352 0.60925,-0.0822 z"
         fill="#000000"
         stroke-width="0.0881944"
         fill-rule="nonzero"
         marker-start="none"
         marker-end="none"
         id="path2575"
         style="font-size:16px;font-family:'Times New Roman';stroke:none;stroke-linejoin:miter" />
      <path
         d="m 91.161434,124.22889 c -0.28187,1.22132 -0.615598,2.42253 -1.108075,3.57788 -0.566209,1.32785 -1.474611,2.25107 -2.35585,3.35421 -0.413809,0.51788 0.108302,1.37054 0.751416,0.97402 2.424642,-1.49437 3.243086,-5.03696 3.71722,-7.62882 0.119238,-0.65194 -0.851959,-0.93839 -1.004711,-0.27729 z"
         fill="#000000"
         stroke-width="0.0881944"
         fill-rule="nonzero"
         marker-start="none"
         marker-end="none"
         id="path2577"
         style="font-size:16px;font-family:'Times New Roman';stroke:none;stroke-linejoin:miter" />
      <path
         d="m 116.43867,107.6046 c 0.42192,0.13511 1.56034,0.58667 0.76376,0.99765 -0.68192,0.35243 -1.61501,0.47625 -2.31034,0.90523 -0.25717,0.1584 -0.29845,0.502 -0.0931,0.72072 1.04316,1.10984 3.02048,0.30375 3.57082,-0.92533 0.59936,-1.33809 -0.53376,-2.1657 -1.73955,-2.39184 -0.45262,-0.085 -0.63712,0.55069 -0.19156,0.69357 z"
         fill="#000000"
         stroke-width="0.0881944"
         fill-rule="nonzero"
         marker-start="none"
         marker-end="none"
         id="path2579"
         style="font-size:16px;font-family:'Times New Roman';stroke:none;stroke-linejoin:miter" />
      <path
         d="m 114.6642,109.36884 c -3.41701,1.63089 -7.28239,1.61007 -10.99044,1.60055 -2.27859,-0.006 -4.558246,0.0212 -6.835427,-0.0765 -1.296458,-0.0557 -2.574219,-0.21908 -3.843513,-0.4886 -1.234723,-0.26211 -2.363259,-0.80998 -3.624086,-0.93486 -0.384528,-0.0378 -0.564798,0.49636 -0.306917,0.74118 1.672167,1.58856 4.406194,1.85068 6.609291,2.0828 2.646539,0.27905 5.346002,0.0949 8.000652,0.0709 3.43429,-0.0314 8.71573,0.0917 11.2462,-2.66417 0.16687,-0.18239 -0.0413,-0.43357 -0.25576,-0.33126 z"
         fill="#000000"
         stroke-width="0.0881944"
         fill-rule="nonzero"
         marker-start="none"
         marker-end="none"
         id="path2581"
         style="font-size:16px;font-family:'Times New Roman';stroke:none;stroke-linejoin:miter" />
      <path
         d="m 112.51896,104.39679 c 2.58057,0.55245 5.21088,0.79657 7.82037,1.16875 2.55023,0.36336 5.63139,0.79939 7.64823,2.52201 3.08821,2.63701 3.22474,7.18079 0.60607,10.15118 -2.96757,3.3655 -8.53934,4.59316 -12.74657,5.36116 -2.44828,0.44662 -4.93465,0.66675 -7.41645,0.81527 -2.07433,0.12383 -4.27743,-0.0762 -6.27238,0.51153 -0.31927,0.0938 -0.32033,0.5521 0,0.64558 2.30011,0.67099 4.97381,0.3041 7.34977,0.16792 2.79929,-0.16051 5.58906,-0.49671 8.33966,-1.04104 4.63727,-0.91758 10.27818,-2.67794 13.01045,-6.8326 2.08668,-3.17289 1.85173,-7.82214 -1.2005,-10.27783 -4.49757,-3.61915 -11.54254,-2.98415 -16.86843,-4.17265 -0.63958,-0.14253 -0.91052,0.84349 -0.27022,0.98072 z"
         fill="#000000"
         stroke-width="0.0881944"
         fill-rule="nonzero"
         marker-start="none"
         marker-end="none"
         id="path2583"
         style="font-size:16px;font-family:'Times New Roman';stroke:none;stroke-linejoin:miter" />
      <path
         d="m 96.009658,104.59575 c -1.774119,-0.99165 -4.107391,-0.52422 -6.016624,-0.20108 -2.583039,0.43674 -5.14985,1.17793 -7.661628,1.91558 -3.971219,1.16699 -8.174213,3.66148 -7.403747,8.39894 0.02505,0.15416 0.286809,0.15451 0.31115,0 0.721784,-4.60128 4.54025,-6.46748 8.649053,-7.57061 3.994502,-1.07209 7.806266,-2.48109 12.00926,-2.1269 0.226131,0.0187 0.29845,-0.31221 0.112536,-0.41593 z"
         fill="#000000"
         stroke-width="0.0881944"
         fill-rule="nonzero"
         marker-start="none"
         marker-end="none"
         id="path2585"
         style="font-size:16px;font-family:'Times New Roman';stroke:none;stroke-linejoin:miter" />
      <path
         d="m 75.761626,117.43087 c 2.7686,4.10739 7.036505,6.21771 11.767608,7.28627 2.332566,0.5267 4.729338,0.73836 7.109883,0.90382 1.331736,0.0924 2.665588,0.15275 3.999088,0.21766 1.162403,0.0564 2.408415,0.28222 3.547895,0.006 0.45755,-0.11077 0.36724,-0.68862 0,-0.83678 -1.75754,-0.71156 -4.161728,-0.47484 -6.043444,-0.61172 -2.436989,-0.17745 -4.858103,-0.44133 -7.265811,-0.86254 -4.846108,-0.84843 -9.244189,-2.89313 -12.745155,-6.38775 -0.185914,-0.18556 -0.522464,0.0589 -0.370064,0.2854 z"
         fill="#000000"
         stroke-width="0.0881944"
         fill-rule="nonzero"
         marker-start="none"
         marker-end="none"
         id="path2587"
         style="font-size:16px;font-family:'Times New Roman';stroke:none;stroke-linejoin:miter" />
      <path
         d="m 76.141568,117.6824 c 0.02293,0 0.02293,-0.0353 0,-0.0353 -0.02258,0 -0.02258,0.0353 0,0.0353 z"
         fill="#000000"
         stroke-width="0.0881944"
         fill-rule="nonzero"
         marker-start="none"
         marker-end="none"
         id="path2589"
         style="font-size:16px;font-family:'Times New Roman';stroke:none;stroke-linejoin:miter" />
      <path
         d="m 76.261159,117.63195 c -0.116416,-0.64594 -0.233539,-1.29293 -0.344664,-1.93992 -0.123119,-0.71614 -0.202494,-1.50566 -0.426508,-2.1964 -0.127353,-0.39229 -0.694619,-0.41169 -0.813505,0 -0.4318,1.49966 0.280458,3.24168 1.377597,4.25662 0.0956,0.0885 0.2286,0 0.20708,-0.1203 z"
         fill="#000000"
         stroke-width="0.0881944"
         fill-rule="nonzero"
         marker-start="none"
         marker-end="none"
         id="path2591"
         style="font-size:16px;font-family:'Times New Roman';stroke:none;stroke-linejoin:miter" />
      <path
         d="m 119.93505,123.5184 c 3.05188,-1.64782 3.27977,-6.11575 1.99496,-8.9288 -1.17546,-2.57246 -5.09023,-6.51158 -8.26029,-4.70782 -0.32703,0.18591 -0.25718,0.69603 0.10371,0.79304 1.28023,0.34572 2.51919,0.15699 3.77473,0.75353 1.34655,0.63924 2.34985,1.8087 3.07622,3.07975 0.73342,1.28411 1.01388,2.7746 0.92357,4.23792 -0.10689,1.72544 -1.11972,2.81658 -2.15371,4.07106 -0.31609,0.38276 0.0744,0.95285 0.54081,0.70132 z"
         fill="#000000"
         stroke-width="0.0881944"
         fill-rule="nonzero"
         marker-start="none"
         marker-end="none"
         id="path2623"
         style="font-size:16px;font-family:'Times New Roman';stroke:none;stroke-linejoin:miter" />
      <path
         d="m 131.18443,114.31337 c -0.33232,-2.86702 -2.89419,-4.64009 -5.34811,-5.72382 -2.15442,-0.95144 -6.29074,-2.08633 -8.10119,0.0452 -0.20038,0.23601 -0.007,0.54716 0.28998,0.49741 2.50049,-0.41557 4.57482,-0.61312 7.05309,0.18556 2.39677,0.77294 5.02884,2.49308 5.74075,5.04508 0.055,0.19614 0.39052,0.16404 0.36548,-0.0494 z"
         fill="#000000"
         stroke-width="0.0881944"
         fill-rule="nonzero"
         marker-start="none"
         marker-end="none"
         id="path2625"
         style="font-size:16px;font-family:'Times New Roman';stroke:none;stroke-linejoin:miter" />
      <path
         d="m 117.37071,107.56473 c 0.48965,-0.50059 1.01106,-0.99377 1.5681,-1.41958 0.51117,-0.39052 1.28164,-0.61559 1.63195,-1.16275 0.12382,-0.19368 0.0127,-0.52564 -0.22966,-0.5648 -0.71014,-0.11395 -1.3776,0.43533 -1.92158,0.83926 -0.68263,0.50659 -1.22943,1.09961 -1.73073,1.78188 -0.29704,0.40464 0.34466,0.87066 0.68192,0.52599 z"
         fill="#000000"
         stroke-width="0.0881944"
         fill-rule="nonzero"
         marker-start="none"
         marker-end="none"
         id="path2627"
         style="font-size:16px;font-family:'Times New Roman';stroke:none;stroke-linejoin:miter" />
      <path
         d="m 108.86136,125.16093 c 1.56986,-1.59173 1.60196,-4.173 1.49789,-6.26709 -0.10583,-2.12231 -0.51329,-5.16114 -2.02812,-6.78392 -0.24024,-0.25717 -0.76976,0.01 -0.62195,0.36195 1.73108,4.12679 2.64055,8.21619 0.94474,12.56841 -0.0466,0.1196 0.12524,0.20391 0.20744,0.12065 z"
         fill="#000000"
         stroke-width="0.0881944"
         fill-rule="nonzero"
         marker-start="none"
         marker-end="none"
         id="path2629"
         style="font-size:16px;font-family:'Times New Roman';stroke:none;stroke-linejoin:miter" />
      <path
         d="m 96.018478,124.72031 c 0.117828,-1.93533 -0.299156,-3.91477 -0.173214,-5.88327 0.07937,-1.24566 0.276225,-2.48849 0.534458,-3.70875 0.235303,-1.11337 0.811389,-2.10997 1.051278,-3.20217 0.06667,-0.30444 -0.28575,-0.51611 -0.518583,-0.30162 -1.485548,1.37054 -1.793523,4.35151 -2.014009,6.23429 -0.233186,1.98614 -0.620536,5.23063 0.565503,7.01181 0.166864,0.25082 0.536222,0.14922 0.554567,-0.15029 z"
         fill="#000000"
         stroke-width="0.0881944"
         fill-rule="nonzero"
         marker-start="none"
         marker-end="none"
         id="path2631"
         style="font-size:16px;font-family:'Times New Roman';stroke:none;stroke-linejoin:miter" />
      <path
         d="m 85.8486,123.20266 c -1.229077,-2.32551 -0.994833,-4.7318 0.106187,-7.06331 0.501297,-1.06116 1.222022,-2.01295 2.040466,-2.84692 0.884414,-0.90099 1.9939,-1.29046 2.968272,-2.02 0.257175,-0.19262 0.213431,-0.69639 -0.18168,-0.67028 -2.572456,0.17039 -4.740981,3.46463 -5.706533,5.54778 -1.077031,2.32445 -1.299986,5.26168 0.44203,7.3085 0.161572,0.18944 0.438856,-0.0522 0.331258,-0.25577 z"
         fill="#000000"
         stroke-width="0.0881944"
         fill-rule="nonzero"
         marker-start="none"
         marker-end="none"
         id="path2633"
         style="font-size:16px;font-family:'Times New Roman';stroke:none;stroke-linejoin:miter" />
      <path
         d="m 89.4935,109.78088 c -2.745669,-2.36643 -6.190191,-1.59914 -8.858249,0.49953 -2.008364,1.57939 -5.314597,6.63787 -3.045531,9.1112 0.279753,0.3048 0.740128,0.0504 0.762353,-0.31574 0.08149,-1.35996 -0.455789,-2.51354 -0.151342,-3.94617 0.322792,-1.51836 1.241778,-2.7619 2.328334,-3.82976 2.382308,-2.34209 5.861402,-3.14289 8.75418,-1.24636 0.164041,0.1076 0.360186,-0.14358 0.210255,-0.2727 z"
         fill="#000000"
         stroke-width="0.0881944"
         fill-rule="nonzero"
         marker-start="none"
         marker-end="none"
         id="path2635"
         style="font-size:16px;font-family:'Times New Roman';stroke:none;stroke-linejoin:miter" />
      <path
         d="m 90.7127,110.14248 c 0.711553,-1.2513 0.109361,-2.65148 -0.896408,-3.55071 -0.948972,-0.84878 -3.137958,-1.68628 -4.191705,-0.61066 -0.262467,0.26847 -0.189089,0.87419 0.246591,0.93275 0.447322,0.0603 0.813153,-0.0547 1.258006,-0.0917 0.574675,-0.0483 1.146527,0.12277 1.654527,0.37748 1.124303,0.56374 1.643592,1.6704 1.697567,2.88043 0.0056,0.11994 0.168275,0.17392 0.231422,0.0624 z"
         fill="#000000"
         stroke-width="0.0881944"
         fill-rule="nonzero"
         marker-start="none"
         marker-end="none"
         id="path2637"
         style="font-size:16px;font-family:'Times New Roman';stroke:none;stroke-linejoin:miter" />
      <path
         d="m 98.800483,109.59814 c 1.320097,-2.87231 1.900767,-6.59624 1.468267,-9.745129 -0.293164,-2.130778 -1.850678,-1.037167 -2.464864,0.307269 -0.987425,2.16182 -0.511881,5.14773 -0.653344,7.48312 -0.05009,0.82585 0.136172,3.16371 1.348669,1.68698 0.141817,-0.1725 0.159808,-0.003 0.129822,0.19544 -0.01446,0.096 0.12312,0.1771 0.17145,0.0723 z"
         marker-start="none"
         marker-end="none"
         id="path2735"
         style="font-size:16px;font-family:'Times New Roman';fill:#d2e7fa;fill-rule:nonzero;stroke:none;stroke-width:0.0881944;stroke-linejoin:miter" />
      <path
         d="m 101.50453,95.501497 c 0.39899,-0.294569 0.79269,-0.700969 0.71578,-1.236839 -0.0512,-0.358775 -0.36794,-0.620183 -0.6992,-0.717902 -0.36548,-0.107245 -0.76412,0 -0.99342,0.30868 -0.12453,0.167217 -0.16722,0.384528 -0.16969,0.588786 -0.004,0.27552 0.0667,0.639234 0.20708,0.87877 0.0356,0.06103 0.0967,0.101952 0.15417,0.140052 0.11782,0.07902 0.31361,0.0049 0.34007,-0.138288 0.031,-0.167923 -0.0141,-0.06244 0.0677,0.07761 0.0698,0.119239 0.25611,0.188383 0.37747,0.09913 z"
         marker-start="none"
         marker-end="none"
         id="path2737"
         style="font-size:16px;font-family:'Times New Roman';fill:#d2e7fa;fill-rule:nonzero;stroke:none;stroke-width:0.0881944;stroke-linejoin:miter" />
      <path
         d="m 94.422511,129.94848 c 0.126647,-0.10477 0.177095,-0.29386 0.239889,-0.44168 0.06421,-0.15169 0.125942,-0.30409 0.183797,-0.45861 0.0822,-0.22084 0.147461,-0.44626 0.191206,-0.67768 0.05115,-0.26917 0.1016,-0.62195 -0.06244,-0.86572 -0.336903,-0.49953 -1.000478,-0.043 -1.32715,0.22049 -0.463197,0.37288 -0.891469,0.87912 -1.137708,1.42345 -0.102306,0.22719 -0.185561,0.48401 -0.123825,0.73413 0.05997,0.24272 0.284339,0.38982 0.520347,0.42581 0.336197,0.0515 0.649464,-0.0148 0.951795,-0.16334 0.136172,-0.067 0.454377,-0.10548 0.564091,-0.19685 z"
         marker-start="none"
         marker-end="none"
         id="path2739"
         style="font-size:16px;font-family:'Times New Roman';fill:#d2e7fa;fill-rule:nonzero;stroke:none;stroke-width:0.0881944;stroke-linejoin:miter" />
    </g>
  </g>
</svg>
